…
``` r
# subset all general_cause with missing data
general_cause_missing <- fires_new[which(fires_new$NWCG_GENERAL_CAUSE == "Missing data/not specified/undetermined"),
    ]
general_cause_missing
```

    ## # A tibble: 513,433 × 17
    ##    FOD_ID FIRE_Y…¹ DISCOVER…² DISCO…³ DISCO…⁴ NWCG_…⁵ NWCG_…⁶ CONT_DATE  CONT_…⁷
    ##    <chr>  <fct>    <date>     <fct>   <times> <fct>   <fct>   <date>     <fct>  
    ##  1 13     2004     2004-09-03 247     16:00:… Human   Missin… 2004-09-03 247    
    ##  2 47     2005     2005-03-11 70      10:00:… Human   Missin… 2005-03-11 70     
    ##  3 52     2005     2005-05-17 137     14:00:… Human   Missin… 2005-05-17 137    
    ##  4 54     2005     2005-04-07 97      16:15:… Human   Missin… 2005-04-07 97     
    ##  5 66     2005     2005-04-24 114     19:30:… Human   Missin… 2005-04-24 114    
    ##  6 74     2005     2005-07-01 182     20:30:… Human   Missin… 2005-07-01 182    
    ##  7 76     2005     2005-07-03 184     17:45:… Human   Missin… 2005-07-03 184    
    ##  8 150    2005     2005-05-02 122     16:28:… Human   Missin… 2005-05-02 122    
    ##  9 151    2005     2005-06-21 172     11:41:… Human   Missin… 2005-06-21 172    
    ## 10 187    2005     2005-07-18 199     14:56:… Human   Missin… 2005-07-18 199    
    ## # … with 513,423 more rows, 8 more variables: CONT_TIME <times>,
    ## #   FIRE_SIZE <dbl>, FIRE_SIZE_CLASS <fct>, LATITUDE <dbl>, LONGITUDE <dbl>,
    ## #   STATE <fct>, COUNTY <fct>, REGION <fct>, and abbreviated variable names
    ## #   ¹​FIRE_YEAR, ²​DISCOVERY_DATE, ³​DISCOVERY_DOY, ⁴​DISCOVERY_TIME,
    ## #   ⁵​NWCG_CAUSE_CLASSIFICATION, ⁶​NWCG_GENERAL_CAUSE, ⁷​CONT_DOY

``` r
# subset all cause_class with missing data
cause_class_missing <- fires_new[which(fires_new$NWCG_CAUSE_CLASSIFICATION == "Missing data/not specified/undetermined"),
    ]
cause_class_missing
```

    ## # A tibble: 142,131 × 17
    ##    FOD_ID FIRE_Y…¹ DISCOVER…² DISCO…³ DISCO…⁴ NWCG_…⁵ NWCG_…⁶ CONT_DATE  CONT_…⁷
    ##    <chr>  <fct>    <date>     <fct>   <times> <fct>   <fct>   <date>     <fct>  
    ##  1 192538 1999     1999-09-13 256     18:00:… Missin… Missin… NA         <NA>   
    ##  2 201350 1998     1998-06-30 181     16:00:… Missin… Missin… NA         <NA>   
    ##  3 214669 1992     1992-06-25 177     19:38:… Missin… Missin… 1992-06-25 177    
    ##  4 214877 1994     1994-08-08 220     09:30:… Missin… Missin… 1994-08-08 220    
    ##  5 214937 1995     1995-06-03 154     11:00:… Missin… Missin… 1995-06-03 154    
    ##  6 214938 1995     1995-06-03 154     11:00:… Missin… Missin… 1995-06-03 154    
    ##  7 216231 1994     1994-06-23 174     10:00:… Missin… Missin… 1994-06-23 174    
    ##  8 216232 1994     1994-06-23 174     10:10:… Missin… Missin… 1994-06-23 174    
    ##  9 216263 1995     1995-05-10 130     13:00:… Missin… Missin… 1995-05-10 130    
    ## 10 216149 1992     1992-08-11 224     16:48:… Missin… Missin… 1992-08-11 224    
    ## # … with 142,121 more rows, 8 more variables: CONT_TIME <times>,
    ## #   FIRE_SIZE <dbl>, FIRE_SIZE_CLASS <fct>, LATITUDE <dbl>, LONGITUDE <dbl>,
    ## #   STATE <fct>, COUNTY <fct>, REGION <fct>, and abbreviated variable names
    ## #   ¹​FIRE_YEAR, ²​DISCOVERY_DATE, ³​DISCOVERY_DOY, ⁴​DISCOVERY_TIME,
    ## #   ⁵​NWCG_CAUSE_CLASSIFICATION, ⁶​NWCG_GENERAL_CAUSE, ⁷​CONT_DOY
…
    ## # A tibble: 0 × 17
    ## # … with 17 variables: FOD_ID <chr>, FIRE_YEAR <fct>, DISCOVERY_DATE <date>,
    ## #   DISCOVERY_DOY <fct>, DISCOVERY_TIME <times>,
    ## #   NWCG_CAUSE_CLASSIFICATION <fct>, NWCG_GENERAL_CAUSE <fct>,
    ## #   CONT_DATE <date>, CONT_DOY <fct>, CONT_TIME <times>, FIRE_SIZE <dbl>,
    ## #   FIRE_SIZE_CLASS <fct>, LATITUDE <dbl>, LONGITUDE <dbl>, STATE <fct>,
    ## #   COUNTY <fct>, REGION <fct>

``` r
cont_future_dates <- fires_new[which(fires_new$CONT_DATE > today()), ]
cont_future_dates
```

    ## # A tibble: 39 × 17
    ##    FOD_ID  FIRE_…¹ DISCOVER…² DISCO…³ DISCO…⁴ NWCG_…⁵ NWCG_…⁶ CONT_DATE  CONT_…⁷
    ##    <chr>   <fct>   <date>     <fct>   <times> <fct>   <fct>   <date>     <fct>  
    ##  1 578071  2008    2008-04-23 114     17:21:… Natural Natural 2023-04-23 113    
    ##  2 642658  2006    2006-04-18 108     00:00:… Human   Missin… 2045-06-21 172    
    ##  3 642680  2006    2006-04-18 108     00:00:… Human   Arson/… 2030-06-18 169    
    ##  4 719640  2006    2006-06-30 181     18:29:… Natural Natural 2060-06-30 182    
    ##  5 1336443 2001    2001-06-19 170     19:19:… Human   Equipm… 2100-06-19 170    
    ##  6 201145… 2011    2011-12-08 342     17:35:… Human   Debris… 2022-12-08 342    
    ##  7 201168… 2011    2011-02-15 46      10:30:… Human   Equipm… 9999-12-31 365    
    ##  8 201168… 2011    2011-04-06 96      10:30:… Human   Debris… 9999-12-31 365    
    ##  9 201607… 2012    2012-07-07 189     16:48:… Human   Equipm… 6476-07-01 183    
    ## 10 201608… 2012    2012-08-27 240     18:30:… Natural Natural 5012-08-27 240    
    ## # … with 29 more rows, 8 more variables: CONT_TIME <times>, FIRE_SIZE <dbl>,
    ## #   FIRE_SIZE_CLASS <fct>, LATITUDE <dbl>, LONGITUDE <dbl>, STATE <fct>,
    ## #   COUNTY <fct>, REGION <fct>, and abbreviated variable names ¹​FIRE_YEAR,
    ## #   ²​DISCOVERY_DATE, ³​DISCOVERY_DOY, ⁴​DISCOVERY_TIME,
    ## #   ⁵​NWCG_CAUSE_CLASSIFICATION, ⁶​NWCG_GENERAL_CAUSE, ⁷​CONT_DOY
``` r
# replace future cont_date with na
fires_new$CONT_DATE[fires_new$CONT_DATE > today()] <- NA

# create new column discovery to containment days
fires_new$DAYS_TO_CONT <- as.numeric(difftime(fires_new$CONT_DATE, fires_new$DISCOVERY_DATE),
    units = "days")

# outliers in days_to_cont (longest burning wildfire in guinness book of
# records is 5 months roughly 150 days)
dtc_large_values <- fires_new[which(fires_new$DAYS_TO_CONT > 150), ]
dtc_large_values
```

    ## # A tibble: 484 × 18
    ##    FOD_ID FIRE_Y…¹ DISCOVER…² DISCO…³ DISCO…⁴ NWCG_…⁵ NWCG_…⁶ CONT_DATE  CONT_…⁷
    ##    <chr>  <fct>    <date>     <fct>   <times> <fct>   <fct>   <date>     <fct>  
    ##  1 17669  2006     2006-07-09 190     20:05:… Natural Natural 2006-12-11 345    
    ##  2 17677  2006     2006-07-09 190     20:05:… Natural Natural 2006-12-11 345    
    ##  3 18397  2007     2007-01-01 1       10:00:… Human   Arson/… 2007-06-11 162    
    ##  4 25401  2007     2007-08-05 217     19:00:… Natural Natural 2008-01-07 7      
    ##  5 27934  2008     2008-06-22 174     08:30:… Natural Natural 2008-12-16 351    
    ##  6 29452  2008     2008-07-07 189     17:00:… Natural Natural 2008-12-16 351    
    ##  7 31234  2008     2008-03-11 71      10:00:… Human   Recrea… 2008-09-11 255    
    ##  8 33716  2008     2008-06-22 174     12:30:… Natural Natural 2008-11-20 325    
    ##  9 34942  2008     2008-04-27 118     16:30:… Natural Natural 2009-04-27 117    
    ## 10 39338  2009     2009-01-18 18      15:30:… Human   Arson/… 2009-08-19 231    
    ## # … with 474 more rows, 9 more variables: CONT_TIME <times>, FIRE_SIZE <dbl>,
    ## #   FIRE_SIZE_CLASS <fct>, LATITUDE <dbl>, LONGITUDE <dbl>, STATE <fct>,
    ## #   COUNTY <fct>, REGION <fct>, DAYS_TO_CONT <dbl>, and abbreviated variable
    ## #   names ¹​FIRE_YEAR, ²​DISCOVERY_DATE, ³​DISCOVERY_DOY, ⁴​DISCOVERY_TIME,
    ## #   ⁵​NWCG_CAUSE_CLASSIFICATION, ⁶​NWCG_GENERAL_CAUSE, ⁷​CONT_DOY
…
``` r
fires_new %>%
    count(DAYS_TO_CONT)
```

    ## # A tibble: 152 × 2
    ##    DAYS_TO_CONT       n
    ##           <dbl>   <int>
    ##  1            0 1089878
    ##  2            1  120743
    ##  3            2   29253
    ##  4            3   14500
    ##  5            4    8173
    ##  6            5    5746
    ##  7            6    4280
    ##  8            7    3583
    ##  9            8    2549
    ## 10            9    2097
    ## # … with 142 more rows
…
``` r
fires_new %>%
    count(DAYS_TO_CONT)
```

    ## # A tibble: 152 × 2
    ##    DAYS_TO_CONT       n
    ##           <dbl>   <int>
    ##  1            0 1870956
    ##  2            1  149831
    ##  3            2   35682
    ##  4            3   15084
    ##  5            4    9186
    ##  6            5    5912
    ##  7            6    4617
    ##  8            7    3648
    ##  9            8    2568
    ## 10            9    2106
    ## # … with 142 more rows
…
<img src="us-wildfires-and-drought_files/figure-gfm/correlation-matrix-attributes-4.png" style="display: block; margin: auto;" />
\## Fire size and SPEI Linear Regression

``` r
# CA FIRE_SIZE & SPEI new df with fire_year and mean fire size for CA
fires_new_ca_fs <- fires_new_ca %>%
    group_by(FIRE_YEAR) %>%
    summarise_at(vars(FIRE_SIZE), list(AVG_FIRE_SIZE_CA = mean))

fires_new_ca_fs
```

    ## # A tibble: 27 × 2
    ##    FIRE_YEAR AVG_FIRE_SIZE_CA
    ##    <fct>                <dbl>
    ##  1 1992                  27.4
    ##  2 1993                  38.9
    ##  3 1994                  47.1
    ##  4 1995                  29.3
    ##  5 1996                  77.1
    ##  6 1997                  40.9
    ##  7 1998                  23.3
    ##  8 1999                  90.3
    ##  9 2000                  38.0
    ## 10 2001                  42.9
    ## # … with 17 more rows

``` r
# rename fire_year for merging
fires_new_ca_fs <- rename_all(fires_new_ca_fs, recode, FIRE_YEAR = "Year")
fires_new_ca_fs
```

    ## # A tibble: 27 × 2
    ##    Year  AVG_FIRE_SIZE_CA
    ##    <fct>            <dbl>
    ##  1 1992              27.4
    ##  2 1993              38.9
    ##  3 1994              47.1
    ##  4 1995              29.3
    ##  5 1996              77.1
    ##  6 1997              40.9
    ##  7 1998              23.3
    ##  8 1999              90.3
    ##  9 2000              38.0
    ## 10 2001              42.9
    ## # … with 17 more rows
…
## Fire frequency and SPEI Linear Regression

``` r
# CA FIRE_FREQ & SPEI new df with fire_year and fire frequency for CA
fires_new_ca_ff <- fires_new_ca %>%
    group_by(FIRE_YEAR) %>%
    summarise(CA_FIRE_FREQ = (count = n()))

fires_new_ca_ff
```

    ## # A tibble: 27 × 2
    ##    FIRE_YEAR CA_FIRE_FREQ
    ##    <fct>            <int>
    ##  1 1992             10831
    ##  2 1993              8268
    ##  3 1994              8649
    ##  4 1995              7381
    ##  5 1996              9170
    ##  6 1997              7928
    ##  7 1998              6861
    ##  8 1999              8909
    ##  9 2000              6970
    ## 10 2001              8163
    ## # … with 17 more rows

``` r
# rename fire_year for merging
fires_new_ca_ff <- rename_all(fires_new_ca_ff, recode, FIRE_YEAR = "Year")
fires_new_ca_ff
```

    ## # A tibble: 27 × 2
    ##    Year  CA_FIRE_FREQ
    ##    <fct>        <int>
    ##  1 1992         10831
    ##  2 1993          8268
    ##  3 1994          8649
    ##  4 1995          7381
    ##  5 1996          9170
    ##  6 1997          7928
    ##  7 1998          6861
    ##  8 1999          8909
    ##  9 2000          6970
    ## 10 2001          8163
    ## # … with 17 more rows
…
<img src="us-wildfires-and-drought_files/figure-gfm/fire-freq-spei-linear-regression-1.png" style="display: block; margin: auto;" />
\## Fire area and SPEI Linear Regression

``` r
# CA FIRE_AREA & SPEI new df with fire_year and fire area for CA
fires_new_ca_fa <- fires_new_ca %>%
    group_by(FIRE_YEAR) %>%
    summarise_at(vars(FIRE_SIZE), list(AREA_BURNED_CA = sum))

fires_new_ca_fa
```

    ## # A tibble: 27 × 2
    ##    FIRE_YEAR AREA_BURNED_CA
    ##    <fct>              <dbl>
    ##  1 1992             296440.
    ##  2 1993             321495.
    ##  3 1994             406965.
    ##  4 1995             216069.
    ##  5 1996             707109.
    ##  6 1997             324566.
    ##  7 1998             160009.
    ##  8 1999             804123.
    ##  9 2000             264671.
    ## 10 2001             350140.
    ## # … with 17 more rows

``` r
# rename fire_year for merging
fires_new_ca_fa <- rename_all(fires_new_ca_fa, recode, FIRE_YEAR = "Year")
fires_new_ca_fa
```

    ## # A tibble: 27 × 2
    ##    Year  AREA_BURNED_CA
    ##    <fct>          <dbl>
    ##  1 1992         296440.
    ##  2 1993         321495.
    ##  3 1994         406965.
    ##  4 1995         216069.
    ##  5 1996         707109.
    ##  6 1997         324566.
    ##  7 1998         160009.
    ##  8 1999         804123.
    ##  9 2000         264671.
    ## 10 2001         350140.
    ## # … with 17 more rows
…
<img src="us-wildfires-and-drought_files/figure-gfm/fire-area-spei-linear-regression-1.png" style="display: block; margin: auto;" />
\## Large Fires and SPEI Linear Regression

``` r
# Number of fires greater than 10,000 acres and the proportion Large fire
# defined as > 10,000 in literature here:
# (https://fireecology.springeropen.com/articles/10.1186/s42408-021-00110-7)
fires_new_ca_lf <- fires_new_ca %>%
    group_by(FIRE_YEAR) %>%
    summarize(CA_NUM_FIRES = n(), CA_NUM_LARGE_FIRES = sum(FIRE_SIZE > 10000), CA_PCT_LARGE_FIRES = (CA_NUM_LARGE_FIRES/CA_NUM_FIRES) *
        100)
fires_new_ca_lf
```

    ## # A tibble: 27 × 4
    ##    FIRE_YEAR CA_NUM_FIRES CA_NUM_LARGE_FIRES CA_PCT_LARGE_FIRES
    ##    <fct>            <int>              <int>              <dbl>
    ##  1 1992             10831                  3             0.0277
    ##  2 1993              8268                  6             0.0726
    ##  3 1994              8649                  6             0.0694
    ##  4 1995              7381                  2             0.0271
    ##  5 1996              9170                 14             0.153 
    ##  6 1997              7928                  6             0.0757
    ##  7 1998              6861                  2             0.0292
    ##  8 1999              8909                 18             0.202 
    ##  9 2000              6970                  3             0.0430
    ## 10 2001              8163                  8             0.0980
    ## # … with 17 more rows

``` r
# rename fire_year for merging
fires_new_ca_lf <- rename_all(fires_new_ca_lf, recode, FIRE_YEAR = "Year")
fires_new_ca_lf
```

    ## # A tibble: 27 × 4
    ##    Year  CA_NUM_FIRES CA_NUM_LARGE_FIRES CA_PCT_LARGE_FIRES
    ##    <fct>        <int>              <int>              <dbl>
    ##  1 1992         10831                  3             0.0277
    ##  2 1993          8268                  6             0.0726
    ##  3 1994          8649                  6             0.0694
    ##  4 1995          7381                  2             0.0271
    ##  5 1996          9170                 14             0.153 
    ##  6 1997          7928                  6             0.0757
    ##  7 1998          6861                  2             0.0292
    ##  8 1999          8909                 18             0.202 
    ##  9 2000          6970                  3             0.0430
    ## 10 2001          8163                  8             0.0980
    ## # … with 17 more rows
…
